{
    "port": 4000,
    "database": {
		"host": "",
		"user": "",
		"password": "",
		"database": "",
		"port": 5432,
		"max": 100,
		"idleTimeoutMillis": 30000,
		"connectionTimeoutMillis": 2000
    }
}